arrow==0.12.1
beautifulsoup4==4.6.3
binaryornot==0.4.4
certifi==2018.8.24
chardet==3.0.4
Click==7.0
cookiecutter==1.6.0
Django==2.1.2
future==0.17.0
idna==2.7
Jinja2==2.10
jinja2-time==0.2.0
lxml==4.2.5
MarkupSafe==1.0
poyo==0.4.2
python-dateutil==2.7.5
pytz==2018.5
requests==2.19.1
six==1.11.0
urllib3==1.23
whichcraft==0.5.2